<svg width="20" height="16" viewBox="0 0 20 16" fill="none" xmlns="http://www.w3.org/2000/svg">
<path fill-rule="evenodd" clip-rule="evenodd" d="M2 0C0.895431 0 0 0.895431 0 2V14C0 15.1046 0.895431 16 2 16H18C19.1046 16 20 15.1046 20 14V11.6632C19.5454 11.8792 19.0368 12 18.5 12C16.567 12 15 10.433 15 8.5C15 6.567 16.567 5 18.5 5C19.0368 5 19.5454 5.12085 20 5.33682V2C20 0.895431 19.1046 0 18 0H2Z" fill="#7D7D7D"/>
</svg>
