<svg width="19" height="18" viewBox="0 0 19 18" fill="none" xmlns="http://www.w3.org/2000/svg">
<path d="M1.38546 5.52581L17.2723 0.230206C17.6459 0.105671 18.0497 0.307582 18.1742 0.681189C18.223 0.827557 18.223 0.985802 18.1742 1.13217L12.8786 17.019C12.7541 17.3926 12.3503 17.5945 11.9767 17.47C11.7938 17.409 11.6433 17.2765 11.5597 17.1028L8.22581 10.1786L1.30162 6.84476C0.946787 6.67391 0.797639 6.24777 0.968481 5.89294C1.05212 5.71922 1.20255 5.58678 1.38546 5.52581Z" fill="#5A5A5A"/>
</svg>
